{
    "name": "InputActions",
    "maps": [
        {
            "name": "Player",
            "id": "38f4e7f4-2661-4072-b341-847abff0e91c",
            "actions": [
                {
                    "name": "Movement",
                    "type": "Value",
                    "id": "f1e8a755-3fd0-4449-a67c-5f97da971793",
                    "expectedControlType": "Vector2",
                    "processors": "",
                    "interactions": ""
                },
                {
                    "name": "Jump",
                    "type": "Button",
                    "id": "8272a688-4a2a-4254-b054-9dbabf00b3d5",
                    "expectedControlType": "Button",
                    "processors": "",
                    "interactions": ""
                },
                {
                    "name": "Ground Pound",
                    "type": "Button",
                    "id": "ddd37f92-6e71-436a-b980-3abd95f2d62b",
                    "expectedControlType": "Button",
                    "processors": "",
                    "interactions": ""
                },
                {
                    "name": "CameraRotation",
                    "type": "Value",
                    "id": "8fa1f7ed-894b-443c-9bb2-ec1cce96a3af",
                    "expectedControlType": "Vector2",
                    "processors": "",
                    "interactions": ""
                }
            ],
            "bindings": [
                {
                    "name": "WASD Keys",
                    "id": "1947aa98-9428-4647-981a-9675d132e965",
                    "path": "2DVector",
                    "interactions": "",
                    "processors": "",
                    "groups": "",
                    "action": "Movement",
                    "isComposite": true,
                    "isPartOfComposite": false
                },
                {
                    "name": "up",
                    "id": "6750bbb9-c1d8-4e5a-a86b-e901497dd8f3",
                    "path": "<Keyboard>/w",
                    "interactions": "",
                    "processors": "",
                    "groups": "Keyboard and Mouse",
                    "action": "Movement",
                    "isComposite": false,
                    "isPartOfComposite": true
                },
                {
                    "name": "down",
                    "id": "e698400c-915a-430b-a2ae-6a9498b9c823",
                    "path": "<Keyboard>/s",
                    "interactions": "",
                    "processors": "",
                    "groups": "Keyboard and Mouse",
                    "action": "Movement",
                    "isComposite": false,
                    "isPartOfComposite": true
                },
                {
                    "name": "left",
                    "id": "9087dead-9a3c-433b-9558-05d288fc1f28",
                    "path": "<Keyboard>/a",
                    "interactions": "",
                    "processors": "",
                    "groups": "Keyboard and Mouse",
                    "action": "Movement",
                    "isComposite": false,
                    "isPartOfComposite": true
                },
                {
                    "name": "right",
                    "id": "2f5614e4-d5b6-4d51-bc4c-c92ef6236edb",
                    "path": "<Keyboard>/d",
                    "interactions": "",
                    "processors": "",
                    "groups": "Keyboard and Mouse",
                    "action": "Movement",
                    "isComposite": false,
                    "isPartOfComposite": true
                },
                {
                    "name": "",
                    "id": "1875acaf-224c-456f-bbc1-da4fc75b9769",
                    "path": "<Gamepad>/dpad",
                    "interactions": "",
                    "processors": "",
                    "groups": "Controller",
                    "action": "Movement",
                    "isComposite": false,
                    "isPartOfComposite": false
                },
                {
                    "name": "",
                    "id": "db84e7ac-fe73-47ac-b809-e1d63a64d995",
                    "path": "<Gamepad>/leftStick",
                    "interactions": "",
                    "processors": "",
                    "groups": "Controller",
                    "action": "Movement",
                    "isComposite": false,
                    "isPartOfComposite": false
                },
                {
                    "name": "",
                    "id": "43f7e15c-e6a4-4eaa-9cf8-cfdb620d9f1d",
                    "path": "<Keyboard>/space",
                    "interactions": "",
                    "processors": "",
                    "groups": "Keyboard and Mouse",
                    "action": "Jump",
                    "isComposite": false,
                    "isPartOfComposite": false
                },
                {
                    "name": "",
                    "id": "e829be27-3ea5-4882-b228-8289c64cc775",
                    "path": "<Gamepad>/buttonSouth",
                    "interactions": "",
                    "processors": "",
                    "groups": "Controller",
                    "action": "Jump",
                    "isComposite": false,
                    "isPartOfComposite": false
                },
                {
                    "name": "",
                    "id": "25abe2e9-a297-41d9-95c4-682b0e86c926",
                    "path": "<Keyboard>/q",
                    "interactions": "",
                    "processors": "",
                    "groups": "Keyboard and Mouse",
                    "action": "Ground Pound",
                    "isComposite": false,
                    "isPartOfComposite": false
                },
                {
                    "name": "",
                    "id": "1943cc70-2934-4586-afc0-eec263c16f13",
                    "path": "<Gamepad>/buttonWest",
                    "interactions": "",
                    "processors": "",
                    "groups": "Controller",
                    "action": "Ground Pound",
                    "isComposite": false,
                    "isPartOfComposite": false
                },
                {
                    "name": "",
                    "id": "fc153a82-c8f6-403e-b4f0-8d55c1f8e217",
                    "path": "<Mouse>/delta",
                    "interactions": "",
                    "processors": "",
                    "groups": "Keyboard and Mouse",
                    "action": "CameraRotation",
                    "isComposite": false,
                    "isPartOfComposite": false
                },
                {
                    "name": "",
                    "id": "6898250a-494f-423f-a758-b36bc416bdc7",
                    "path": "<Gamepad>/rightStick",
                    "interactions": "",
                    "processors": "ScaleVector2(x=10,y=10)",
                    "groups": "Controller",
                    "action": "CameraRotation",
                    "isComposite": false,
                    "isPartOfComposite": false
                }
            ]
        },
        {
            "name": "UI",
            "id": "d5288ca1-7a55-4261-8fc1-ce64692cae21",
            "actions": [
                {
                    "name": "Pause",
                    "type": "Button",
                    "id": "6c233f5e-3e48-409a-8bc7-4f69de1a8fdf",
                    "expectedControlType": "Button",
                    "processors": "",
                    "interactions": ""
                }
            ],
            "bindings": [
                {
                    "name": "",
                    "id": "4ec69d3f-9d74-4e5a-9652-89a455d12572",
                    "path": "<Gamepad>/start",
                    "interactions": "",
                    "processors": "",
                    "groups": "Controller",
                    "action": "Pause",
                    "isComposite": false,
                    "isPartOfComposite": false
                },
                {
                    "name": "",
                    "id": "0abd67e8-ada9-4574-adf8-5ce5457a8427",
                    "path": "<Keyboard>/escape",
                    "interactions": "",
                    "processors": "",
                    "groups": "Keyboard and Mouse",
                    "action": "Pause",
                    "isComposite": false,
                    "isPartOfComposite": false
                }
            ]
        }
    ],
    "controlSchemes": [
        {
            "name": "Keyboard and Mouse",
            "bindingGroup": "Keyboard and Mouse",
            "devices": [
                {
                    "devicePath": "<Keyboard>",
                    "isOptional": false,
                    "isOR": false
                },
                {
                    "devicePath": "<Mouse>",
                    "isOptional": false,
                    "isOR": false
                }
            ]
        },
        {
            "name": "Controller",
            "bindingGroup": "Controller",
            "devices": [
                {
                    "devicePath": "<Gamepad>",
                    "isOptional": false,
                    "isOR": false
                }
            ]
        }
    ]
}